22.2,2022-11-16,22.2.4,Dylan Baker,
,2022-11-30,22.2.5,Dylan Baker,This is the last planned release of the 22.2.x series.
22.3,2022-11-16,22.3.0-rc3,Eric Engestrom,
,2022-11-23,22.3.0-rc4,Eric Engestrom,or 22.3.0 final.
